CPU/Part 05/cpu_wavedata_Grp18CPU.vcd
$date
	Fri Feb  4 01:52:53 2022
$end
$version
	Icarus Verilog
$end
$timescale
	1s
$end
$scope module cpu_tb $end
$scope module mycpu $end
$scope module registerInstance $end
$var reg 8 ! \register[0] [7:0] $end
$upscope $end
$upscope $end
$upscope $end
$scope module cpu_tb $end
$scope module mycpu $end
$scope module registerInstance $end
$var reg 8 " \register[1] [7:0] $end
$upscope $end
$upscope $end
$upscope $end
$scope module cpu_tb $end
$scope module mycpu $end
$scope module registerInstance $end
$var reg 8 # \register[2] [7:0] $end
$upscope $end
$upscope $end
$upscope $end
$scope module cpu_tb $end
$scope module mycpu $end
$scope module registerInstance $end
$var reg 8 $ \register[3] [7:0] $end
$upscope $end
$upscope $end
$upscope $end
$scope module cpu_tb $end
$scope module mycpu $end
$scope module registerInstance $end
$var reg 8 % \register[4] [7:0] $end
$upscope $end
$upscope $end
$upscope $end
$scope module cpu_tb $end
$scope module mycpu $end
$scope module registerInstance $end
$var reg 8 & \register[5] [7:0] $end
$upscope $end
$upscope $end
$upscope $end
$scope module cpu_tb $end
$scope module mycpu $end
$scope module registerInstance $end
$var reg 8 ' \register[6] [7:0] $end
$upscope $end
$upscope $end
$upscope $end
$scope module cpu_tb $end
$scope module mycpu $end
$scope module registerInstance $end
$var reg 8 ( \register[7] [7:0] $end
$upscope $end
$upscope $end
$upscope $end
$scope module cpu_tb $end
$var wire 32 ) PC [31:0] $end
$var reg 1 * CLK $end
$var reg 32 + INSTRUCTION [31:0] $end
$var reg 1 , RESET $end
$scope module mycpu $end
$var wire 1 * CLK $end
$var wire 32 - INSTRUCTION [31:0] $end
$var wire 1 , RESET $end
$var wire 1 . zeroBar $end
$var wire 1 / zero $end
$var wire 1 0 writeenable $end
$var wire 3 1 writeReg_add [2:0] $end
$var wire 8 2 twoscomplement [7:0] $end
$var wire 1 3 sub_trigger $end
$var wire 8 4 regOut2 [7:0] $end
$var wire 8 5 regOut1 [7:0] $end
$var wire 3 6 readReg2_add [2:0] $end
$var wire 3 7 readReg1_add [2:0] $end
$var wire 8 8 opcode [7:0] $end
$var wire 8 9 offset7 [7:0] $end
$var wire 32 : offset32 [31:0] $end
$var wire 8 ; mux2_Out [7:0] $end
$var wire 8 < mux1_Out [7:0] $end
$var wire 1 = j $end
$var wire 8 > immediate [7:0] $end
$var wire 1 ? imm_trigger $end
$var wire 1 @ branch $end
$var wire 1 A bnqOK $end
$var wire 1 B beqOK $end
$var wire 3 C alu_op [2:0] $end
$var wire 8 D aluResult [7:0] $end
$var wire 32 E PCtobeExecuted [31:0] $end
$var wire 32 F PCNEXT [31:0] $end
$var wire 32 G PCJBNext [31:0] $end
$var wire 32 H PC [31:0] $end
$var wire 1 I BJOK $end
$scope module ANDInstance1 $end
$var wire 1 @ BEQ $end
$var wire 1 / ALU_ZERO $end
$var reg 1 B BEQ_OK $end
$upscope $end
$scope module ANDInstance2 $end
$var wire 1 . ALU_ZERO $end
$var wire 1 @ BEQ $end
$var reg 1 A BEQ_OK $end
$upscope $end
$scope module MUX32Instance $end
$var wire 32 J PC_NEXT [31:0] $end
$var wire 32 K PC_JBEQ_NEXT [31:0] $end
$var wire 1 I BEQ_J_OK $end
$var reg 32 L PC_tobe_Executed [31:0] $end
$upscope $end
$scope module ORInstance $end
$var wire 1 B BEQ_OK $end
$var wire 1 A J $end
$var wire 1 = BNQ_OK $end
$var reg 1 I BJ_OK $end
$var reg 1 M temp $end
$upscope $end
$scope module aluInstance $end
$var wire 8 N orResult [7:0] $end
$var wire 8 O fwdResult [7:0] $end
$var wire 8 P andResult [7:0] $end
$var wire 8 Q addResult [7:0] $end
$var wire 8 R DATA2 [7:0] $end
$var wire 8 S DATA1 [7:0] $end
$var wire 3 T ALUOP [2:0] $end
$var reg 8 U ALURESULT [7:0] $end
$var reg 1 / ZERO $end
$scope module add1 $end
$var wire 8 V RESULT [7:0] $end
$var wire 8 W DATA2 [7:0] $end
$var wire 8 X DATA1 [7:0] $end
$upscope $end
$scope module and1 $end
$var wire 8 Y RESULT [7:0] $end
$var wire 8 Z DATA2 [7:0] $end
$var wire 8 [ DATA1 [7:0] $end
$upscope $end
$scope module fwd1 $end
$var wire 8 \ RESULT [7:0] $end
$var wire 8 ] DATA2 [7:0] $end
$upscope $end
$scope module or1 $end
$var wire 8 ^ RESULT [7:0] $end
$var wire 8 _ DATA2 [7:0] $end
$var wire 8 ` DATA1 [7:0] $end
$upscope $end
$upscope $end
$scope module controlUnitInstance $end
$var wire 8 a OPCODE [7:0] $end
$var reg 3 b ALU_OP [2:0] $end
$var reg 1 @ BRANCH $end
$var reg 1 ? IMM_TRIGGER $end
$var reg 1 = J $end
$var reg 1 3 SUB_TRIGGER $end
$var reg 1 0 WRITE_ENABLE $end
$upscope $end
$scope module decoderInstance $end
$var wire 32 c INSTRUCTION [31:0] $end
$var reg 8 d IMMEDIATE [7:0] $end
$var reg 8 e OFFSET [7:0] $end
$var reg 8 f OPCODE [7:0] $end
$var reg 3 g RD [2:0] $end
$var reg 3 h RS [2:0] $end
$var reg 3 i RT [2:0] $end
$upscope $end
$scope module mux1 $end
$var wire 1 3 MUXSELECT $end
$var wire 8 j REG2 [7:0] $end
$var wire 8 k REG1 [7:0] $end
$var reg 8 l MUXOUT [7:0] $end
$upscope $end
$scope module mux2 $end
$var wire 1 ? MUXSELECT $end
$var wire 8 m REG1 [7:0] $end
$var wire 8 n REG2 [7:0] $end
$var reg 8 o MUXOUT [7:0] $end
$upscope $end
$scope module pcAdderInstance $end
$var wire 32 p PC [31:0] $end
$var reg 32 q PC_NEXT [31:0] $end
$upscope $end
$scope module pcInstance $end
$var wire 1 * CLK $end
$var wire 32 r PC_tobe_Executed [31:0] $end
$var wire 1 , RESET $end
$var reg 32 s PC [31:0] $end
$upscope $end
$scope module pcJBAdder $end
$var wire 32 t INSTRUCTION [31:0] $end
$var wire 32 u PC_NEXT [31:0] $end
$var wire 32 v OFFSET_32 [31:0] $end
$var reg 32 w PC_JB_NEXT [31:0] $end
$upscope $end
$scope module registerInstance $end
$var wire 1 * CLK $end
$var wire 8 x IN [7:0] $end
$var wire 3 y INADDRESS [2:0] $end
$var wire 3 z OUT1ADDRESS [2:0] $end
$var wire 3 { OUT2ADDRESS [2:0] $end
$var wire 8 | REGOUT1 [7:0] $end
$var wire 8 } REGOUT2 [7:0] $end
$var wire 1 , RESET $end
$var wire 1 0 WRITE $end
$var integer 32 ~ index [31:0] $end
$upscope $end
$scope module shiftExtensionInstance $end
$var wire 8 !" CURRENT_OFFSET [7:0] $end
$var reg 32 "" UPDATED_OFFSET [31:0] $end
$var integer 32 #" counter [31:0] $end
$upscope $end
$scope module twoscomplementInstance $end
$var wire 8 $" VALUE [7:0] $end
$var reg 8 %" TWOS_COMPLEMENT [7:0] $end
$var reg 8 &" Temp [7:0] $end
$upscope $end
$upscope $end
$upscope $end
$enddefinitions $end
#0
$dumpvars
bx &"
bx %"
bx $"
bx #"
bx ""
bx !"
b1000 ~
bx }
bx |
bx {
bx z
bx y
bx x
bx w
bx v
bx u
bx t
bx s
bx r
bx q
bx p
bx o
bx n
bx m
bx l
bx k
bx j
bx i
bx h
bx g
bx f
bx e
bx d
bx c
bx b
bx a
bx `
bx _
bx ^
bx ]
bx \
bx [
bx Z
bx Y
bx X
bx W
bx V
bx U
bx T
bx S
bx R
bx Q
bx P
bx O
bx N
xM
bx L
bx K
bx J
xI
bx H
bx G
bx F
bx E
bx D
bx C
xB
xA
x@
x?
bx >
x=
bx <
bx ;
bx :
bx 9
bx 8
bx 7
bx 6
bx 5
bx 4
x3
bx 2
bx 1
x0
x/
z.
bx -
1,
bx +
0*
bx )
bx (
bx '
bx &
bx %
bx $
bx #
bx "
bx !
$end
#4
1*
#5
b0 (
b0 '
b0 &
b0 %
b0 $
b0 #
b0 "
b0 !
b1000 ~
b0 )
b0 H
b0 p
b0 s
#6
b100 E
b100 L
b100 r
b100 F
b100 J
b100 q
b100 u
#7
b100 1
b100 g
b100 y
b0 7
b0 i
b0 z
b10 6
b10 h
b10 {
b1010 >
b1010 d
b1010 n
b0 8
b0 a
b0 f
b1000000000000001010 +
b1000000000000001010 -
b1000000000000001010 c
b1000000000000001010 t
#8
0I
0M
0B
0A
b1010 ;
b1010 R
b1010 W
b1010 Z
b1010 ]
b1010 _
b1010 o
0@
0=
03
10
1?
b0 C
b0 T
b0 b
0*
#9
b1010 D
b1010 U
b1010 x
b0 <
b0 l
b0 m
b0 &"
bx1x1x N
bx1x1x ^
b0x0x0 P
b0x0x0 Y
b1010 O
b1010 \
b0 5
b0 S
b0 X
b0 [
b0 `
b0 |
b0 4
b0 k
b0 }
b0 $"
#10
b1010 N
b1010 ^
b0 P
b0 Y
b0 2
b0 j
b0 %"
0,
#11
0/
b1010 Q
b1010 V
#12
1*
#13
b1010 %
b100 )
b100 H
b100 p
b100 s
#14
b1000 E
b1000 L
b1000 r
b1000 F
b1000 J
b1000 q
b1000 u
#15
b1 ;
b1 R
b1 W
b1 Z
b1 ]
b1 _
b1 o
b101 1
b101 g
b101 y
b1 6
b1 h
b1 {
b1 >
b1 d
b1 n
b1010000000000000001 +
b1010000000000000001 -
b1010000000000000001 c
b1010000000000000001 t
#16
b1 D
b1 U
b1 x
b1 N
b1 ^
b1 O
b1 \
0*
#17
b1 Q
b1 V
#20
1*
#21
b1 &
b1000 )
b1000 H
b1000 p
b1000 s
#22
b1100 E
b1100 L
b1100 r
b1100 F
b1100 J
b1100 q
b1100 u
#23
b110 1
b110 g
b110 y
b1100000000000000001 +
b1100000000000000001 -
b1100000000000000001 c
b1100000000000000001 t
#24
0*
#28
1*
#29
b1 '
b1100 )
b1100 H
b1100 p
b1100 s
#30
b10000 E
b10000 L
b10000 r
b10000 F
b10000 J
b10000 q
b10000 u
#31
b1001 ;
b1001 R
b1001 W
b1001 Z
b1001 ]
b1001 _
b1001 o
b111 1
b111 g
b111 y
b1001 >
b1001 d
b1001 n
b1110000000000001001 +
b1110000000000001001 -
b1110000000000001001 c
b1110000000000001001 t
#32
b1001 D
b1001 U
b1001 x
b1001 N
b1001 ^
b1001 O
b1001 \
0*
#33
b1001 Q
b1001 V
#36
1*
#37
b1001 (
b10000 )
b10000 H
b10000 p
b10000 s
#38
b10100 E
b10100 L
b10100 r
b10100 F
b10100 J
b10100 q
b10100 u
#39
b101 ;
b101 R
b101 W
b101 Z
b101 ]
b101 _
b101 o
b100 1
b100 g
b100 y
b100 7
b100 i
b100 z
b101 6
b101 h
b101 {
b101 >
b101 d
b101 n
b11 8
b11 a
b11 f
b11000001000000010000000101 +
b11000001000000010000000101 -
b11000001000000010000000101 c
b11000001000000010000000101 t
#40
b0 ;
b0 R
b0 W
b0 Z
b0 ]
b0 _
b0 o
b101 N
b101 ^
b101 O
b101 \
13
0?
b1 C
b1 T
b1 b
0*
#41
b11111111 &"
b0 N
b0 ^
b0 O
b0 \
b1010 5
b1010 S
b1010 X
b1010 [
b1010 `
b1010 |
b1 4
b1 k
b1 }
b1 $"
#42
b11111111 ;
b11111111 R
b11111111 W
b11111111 Z
b11111111 ]
b11111111 _
b11111111 o
b11111111 <
b11111111 l
b11111111 m
b1010 N
b1010 ^
b11111111 2
b11111111 j
b11111111 %"
#43
b11111111 N
b11111111 ^
b1010 P
b1010 Y
b11111111 O
b11111111 \
#44
1*
#45
b1001 %
b10100 )
b10100 H
b10100 p
b10100 s
#46
b11000 E
b11000 L
b11000 r
b11000 F
b11000 J
b11000 q
b11000 u
#47
b100 :
b100 v
b100 ""
b100000 #"
b110 6
b110 h
b110 {
b1 9
b1 e
b1 !"
b111 8
b111 a
b111 f
b1001 5
b1001 S
b1001 X
b1001 [
b1001 `
b1001 |
b111000000010000010000000110 +
b111000000010000010000000110 -
b111000000010000010000000110 c
b111000000010000010000000110 t
#48
xI
xA
1@
00
b1001 P
b1001 Y
0*
#49
b1000 D
b1000 U
b1000 x
b11100 G
b11100 K
b11100 w
b1000 Q
b1000 V
#52
1*
#53
b11000 )
b11000 H
b11000 p
b11000 s
#54
b11100 E
b11100 L
b11100 r
b11100 F
b11100 J
b11100 q
b11100 u
#55
b11111111111111111111111111110100 :
b11111111111111111111111111110100 v
b11111111111111111111111111110100 ""
b100000 #"
b11111101 9
b11111101 e
b11111101 !"
b110 8
b110 a
b110 f
b110111111010000000000000000 +
b110111111010000000000000000 -
b110111111010000000000000000 c
b110111111010000000000000000 t
#56
b1 ;
b1 R
b1 W
b1 Z
b1 ]
b1 _
b1 o
0A
1I
1M
b1 <
b1 l
b1 m
0@
1=
03
0*
#57
b10000 E
b10000 L
b10000 r
b1001 N
b1001 ^
b1 P
b1 Y
b1 O
b1 \
b10000 G
b10000 K
b10000 w
#58
b1010 D
b1010 U
b1010 x
b1010 Q
b1010 V
#60
1*
#61
b10000 )
b10000 H
b10000 p
b10000 s
#62
b10100 F
b10100 J
b10100 q
b10100 u
#63
b101 6
b101 h
b101 {
b11 8
b11 a
b11 f
b11000001000000010000000101 +
b11000001000000010000000101 -
b11000001000000010000000101 c
b11000001000000010000000101 t
#64
b10100 E
b10100 L
b10100 r
b11111111 ;
b11111111 R
b11111111 W
b11111111 Z
b11111111 ]
b11111111 _
b11111111 o
0I
0M
b11111111 <
b11111111 l
b11111111 m
0=
13
10
0*
#65
b11111111 N
b11111111 ^
b1001 P
b1001 Y
b11111111 O
b11111111 \
b1000 G
b1000 K
b1000 w
#66
b1000 D
b1000 U
b1000 x
b1000 Q
b1000 V
#68
1*
#69
b1000 %
b10100 )
b10100 H
b10100 p
b10100 s
#70
b11000 E
b11000 L
b11000 r
b11000 F
b11000 J
b11000 q
b11000 u
#71
b100 :
b100 v
b100 ""
b100000 #"
b110 6
b110 h
b110 {
b1 9
b1 e
b1 !"
b111 8
b111 a
b111 f
b1000 5
b1000 S
b1000 X
b1000 [
b1000 `
b1000 |
b111000000010000010000000110 +
b111000000010000010000000110 -
b111000000010000010000000110 c
b111000000010000010000000110 t
#72
xI
xA
1@
00
b1000 P
b1000 Y
0*
#73
b111 D
b111 U
b111 x
b11100 G
b11100 K
b11100 w
b111 Q
b111 V
#76
1*
#77
b11000 )
b11000 H
b11000 p
b11000 s
#78
b11100 E
b11100 L
b11100 r
b11100 F
b11100 J
b11100 q
b11100 u
#79
b11111111111111111111111111110100 :
b11111111111111111111111111110100 v
b11111111111111111111111111110100 ""
b100000 #"
b11111101 9
b11111101 e
b11111101 !"
b110 8
b110 a
b110 f
b110111111010000000000000000 +
b110111111010000000000000000 -
b110111111010000000000000000 c
b110111111010000000000000000 t
#80
b1 ;
b1 R
b1 W
b1 Z
b1 ]
b1 _
b1 o
0A
1I
1M
b1 <
b1 l
b1 m
0@
1=
03
0*
#81
b10000 E
b10000 L
b10000 r
b1001 N
b1001 ^
b0 P
b0 Y
b1 O
b1 \
b10000 G
b10000 K
b10000 w
#82
b1001 D
b1001 U
b1001 x
b1001 Q
b1001 V
#84
1*
#85
b10000 )
b10000 H
b10000 p
b10000 s
#86
b10100 F
b10100 J
b10100 q
b10100 u
#87
b101 6
b101 h
b101 {
b11 8
b11 a
b11 f
b11000001000000010000000101 +
b11000001000000010000000101 -
b11000001000000010000000101 c
b11000001000000010000000101 t
#88
b10100 E
b10100 L
b10100 r
b11111111 ;
b11111111 R
b11111111 W
b11111111 Z
b11111111 ]
b11111111 _
b11111111 o
0I
0M
b11111111 <
b11111111 l
b11111111 m
0=
13
10
0*
#89
b11111111 N
b11111111 ^
b1000 P
b1000 Y
b11111111 O
b11111111 \
b1000 G
b1000 K
b1000 w
#90
b111 D
b111 U
b111 x
b111 Q
b111 V
#92
1*
#93
b111 %
b10100 )
b10100 H
b10100 p
b10100 s
#94
b11000 E
b11000 L
b11000 r
b11000 F
b11000 J
b11000 q
b11000 u
#95
b100 :
b100 v
b100 ""
b100000 #"
b110 6
b110 h
b110 {
b1 9
b1 e
b1 !"
b111 8
b111 a
b111 f
b111 5
b111 S
b111 X
b111 [
b111 `
b111 |
b111000000010000010000000110 +
b111000000010000010000000110 -
b111000000010000010000000110 c
b111000000010000010000000110 t
#96
xI
xA
1@
00
b111 P
b111 Y
0*
#97
b110 D
b110 U
b110 x
b11100 G
b11100 K
b11100 w
b110 Q
b110 V
#100
1*
#101
b11000 )
b11000 H
b11000 p
b11000 s
#102
b11100 E
b11100 L
b11100 r
b11100 F
b11100 J
b11100 q
b11100 u
#103
b11111111111111111111111111110100 :
b11111111111111111111111111110100 v
b11111111111111111111111111110100 ""
b100000 #"
b11111101 9
b11111101 e
b11111101 !"
b110 8
b110 a
b110 f
b110111111010000000000000000 +
b110111111010000000000000000 -
b110111111010000000000000000 c
b110111111010000000000000000 t
#104
b1 ;
b1 R
b1 W
b1 Z
b1 ]
b1 _
b1 o
0A
1I
1M
b1 <
b1 l
b1 m
0@
1=
03
0*
#105
b10000 E
b10000 L
b10000 r
b111 N
b111 ^
b1 P
b1 Y
b1 O
b1 \
b10000 G
b10000 K
b10000 w
#106
b1000 D
b1000 U
b1000 x
b1000 Q
b1000 V
#108
1*
#109
b10000 )
b10000 H
b10000 p
b10000 s
#110
b10100 F
b10100 J
b10100 q
b10100 u
#111
b101 6
b101 h
b101 {
b11 8
b11 a
b11 f
b11000001000000010000000101 +
b11000001000000010000000101 -
b11000001000000010000000101 c
b11000001000000010000000101 t
#112
b10100 E
b10100 L
b10100 r
b11111111 ;
b11111111 R
b11111111 W
b11111111 Z
b11111111 ]
b11111111 _
b11111111 o
0I
0M
b11111111 <
b11111111 l
b11111111 m
0=
13
10
0*
#113
b11111111 N
b11111111 ^
b111 P
b111 Y
b11111111 O
b11111111 \
b1000 G
b1000 K
b1000 w
#114
b110 D
b110 U
b110 x
b110 Q
b110 V
#116
1*
#117
b110 %
b10100 )
b10100 H
b10100 p
b10100 s
#118
b11000 E
b11000 L
b11000 r
b11000 F
b11000 J
b11000 q
b11000 u
#119
b100 :
b100 v
b100 ""
b100000 #"
b110 6
b110 h
b110 {
b1 9
b1 e
b1 !"
b111 8
b111 a
b111 f
b110 5
b110 S
b110 X
b110 [
b110 `
b110 |
b111000000010000010000000110 +
b111000000010000010000000110 -
b111000000010000010000000110 c
b111000000010000010000000110 t
#120
xI
xA
1@
00
b110 P
b110 Y
0*
#121
b101 D
b101 U
b101 x
b11100 G
b11100 K
b11100 w
b101 Q
b101 V
#124
1*
#125
b11000 )
b11000 H
b11000 p
b11000 s
#126
b11100 E
b11100 L
b11100 r
b11100 F
b11100 J
b11100 q
b11100 u
#127
b11111111111111111111111111110100 :
b11111111111111111111111111110100 v
b11111111111111111111111111110100 ""
b100000 #"
b11111101 9
b11111101 e
b11111101 !"
b110 8
b110 a
b110 f
b110111111010000000000000000 +
b110111111010000000000000000 -
b110111111010000000000000000 c
b110111111010000000000000000 t
#128
b1 ;
b1 R
b1 W
b1 Z
b1 ]
b1 _
b1 o
0A
1I
1M
b1 <
b1 l
b1 m
0@
1=
03
0*
#129
b10000 E
b10000 L
b10000 r
b111 N
b111 ^
b0 P
b0 Y
b1 O
b1 \
b10000 G
b10000 K
b10000 w
#130
b111 D
b111 U
b111 x
b111 Q
b111 V
#132
1*
#133
b10000 )
b10000 H
b10000 p
b10000 s
#134
b10100 F
b10100 J
b10100 q
b10100 u
#135
b101 6
b101 h
b101 {
b11 8
b11 a
b11 f
b11000001000000010000000101 +
b11000001000000010000000101 -
b11000001000000010000000101 c
b11000001000000010000000101 t
#136
b10100 E
b10100 L
b10100 r
b11111111 ;
b11111111 R
b11111111 W
b11111111 Z
b11111111 ]
b11111111 _
b11111111 o
0I
0M
b11111111 <
b11111111 l
b11111111 m
0=
13
10
0*
#137
b11111111 N
b11111111 ^
b110 P
b110 Y
b11111111 O
b11111111 \
b1000 G
b1000 K
b1000 w
#138
b101 D
b101 U
b101 x
b101 Q
b101 V
#140
1*
#141
b101 %
b10100 )
b10100 H
b10100 p
b10100 s
#142
b11000 E
b11000 L
b11000 r
b11000 F
b11000 J
b11000 q
b11000 u
#143
b100 :
b100 v
b100 ""
b100000 #"
b110 6
b110 h
b110 {
b1 9
b1 e
b1 !"
b111 8
b111 a
b111 f
b101 5
b101 S
b101 X
b101 [
b101 `
b101 |
b111000000010000010000000110 +
b111000000010000010000000110 -
b111000000010000010000000110 c
b111000000010000010000000110 t
#144
xI
xA
1@
00
b101 P
b101 Y
0*
#145
b100 D
b100 U
b100 x
b11100 G
b11100 K
b11100 w
b100 Q
b100 V
#148
1*
#149
b11000 )
b11000 H
b11000 p
b11000 s
#150
b11100 E
b11100 L
b11100 r
b11100 F
b11100 J
b11100 q
b11100 u
#151
b11111111111111111111111111110100 :
b11111111111111111111111111110100 v
b11111111111111111111111111110100 ""
b100000 #"
b11111101 9
b11111101 e
b11111101 !"
b110 8
b110 a
b110 f
b110111111010000000000000000 +
b110111111010000000000000000 -
b110111111010000000000000000 c
b110111111010000000000000000 t
#152
b1 ;
b1 R
b1 W
b1 Z
b1 ]
b1 _
b1 o
0A
1I
1M
b1 <
b1 l
b1 m
0@
1=
03
0*
#153
b10000 E
b10000 L
b10000 r
b101 N
b101 ^
b1 P
b1 Y
b1 O
b1 \
b10000 G
b10000 K
b10000 w
#154
b110 D
b110 U
b110 x
b110 Q
b110 V
#156
1*
#157
b10000 )
b10000 H
b10000 p
b10000 s
#158
b10100 F
b10100 J
b10100 q
b10100 u
#159
b101 6
b101 h
b101 {
b11 8
b11 a
b11 f
b11000001000000010000000101 +
b11000001000000010000000101 -
b11000001000000010000000101 c
b11000001000000010000000101 t
#160
b10100 E
b10100 L
b10100 r
b11111111 ;
b11111111 R
b11111111 W
b11111111 Z
b11111111 ]
b11111111 _
b11111111 o
0I
0M
b11111111 <
b11111111 l
b11111111 m
0=
13
10
0*
#161
b11111111 N
b11111111 ^
b101 P
b101 Y
b11111111 O
b11111111 \
b1000 G
b1000 K
b1000 w
#162
b100 D
b100 U
b100 x
b100 Q
b100 V
#164
1*
#165
b100 %
b10100 )
b10100 H
b10100 p
b10100 s
#166
b11000 E
b11000 L
b11000 r
b11000 F
b11000 J
b11000 q
b11000 u
#167
b100 :
b100 v
b100 ""
b100000 #"
b110 6
b110 h
b110 {
b1 9
b1 e
b1 !"
b111 8
b111 a
b111 f
b100 5
b100 S
b100 X
b100 [
b100 `
b100 |
b111000000010000010000000110 +
b111000000010000010000000110 -
b111000000010000010000000110 c
b111000000010000010000000110 t
#168
xI
xA
1@
00
b100 P
b100 Y
0*
#169
b11 D
b11 U
b11 x
b11100 G
b11100 K
b11100 w
b11 Q
b11 V
#172
1*
#173
b11000 )
b11000 H
b11000 p
b11000 s
#174
b11100 E
b11100 L
b11100 r
b11100 F
b11100 J
b11100 q
b11100 u
#175
b11111111111111111111111111110100 :
b11111111111111111111111111110100 v
b11111111111111111111111111110100 ""
b100000 #"
b11111101 9
b11111101 e
b11111101 !"
b110 8
b110 a
b110 f
b110111111010000000000000000 +
b110111111010000000000000000 -
b110111111010000000000000000 c
b110111111010000000000000000 t
#176
b1 ;
b1 R
b1 W
b1 Z
b1 ]
b1 _
b1 o
0A
1I
1M
b1 <
b1 l
b1 m
0@
1=
03
0*
#177
b10000 E
b10000 L
b10000 r
b101 N
b101 ^
b0 P
b0 Y
b1 O
b1 \
b10000 G
b10000 K
b10000 w
#178
b101 D
b101 U
b101 x
b101 Q
b101 V
#180
1*
#181
b10000 )
b10000 H
b10000 p
b10000 s
#182
b10100 F
b10100 J
b10100 q
b10100 u
#183
b101 6
b101 h
b101 {
b11 8
b11 a
b11 f
b11000001000000010000000101 +
b11000001000000010000000101 -
b11000001000000010000000101 c
b11000001000000010000000101 t
#184
b10100 E
b10100 L
b10100 r
b11111111 ;
b11111111 R
b11111111 W
b11111111 Z
b11111111 ]
b11111111 _
b11111111 o
0I
0M
b11111111 <
b11111111 l
b11111111 m
0=
13
10
0*
#185
b11111111 N
b11111111 ^
b100 P
b100 Y
b11111111 O
b11111111 \
b1000 G
b1000 K
b1000 w
#186
b11 D
b11 U
b11 x
b11 Q
b11 V
#188
1*
#189
b11 %
b10100 )
b10100 H
b10100 p
b10100 s
#190
b11000 E
b11000 L
b11000 r
b11000 F
b11000 J
b11000 q
b11000 u
#191
b100 :
b100 v
b100 ""
b100000 #"
b110 6
b110 h
b110 {
b1 9
b1 e
b1 !"
b111 8
b111 a
b111 f
b11 5
b11 S
b11 X
b11 [
b11 `
b11 |
b111000000010000010000000110 +
b111000000010000010000000110 -
b111000000010000010000000110 c
b111000000010000010000000110 t
#192
xI
xA
1@
00
b11 P
b11 Y
0*
#193
b10 D
b10 U
b10 x
b11100 G
b11100 K
b11100 w
b10 Q
b10 V
#196
1*
#197
b11000 )
b11000 H
b11000 p
b11000 s
#198
b11100 E
b11100 L
b11100 r
b11100 F
b11100 J
b11100 q
b11100 u
#199
b11111111111111111111111111110100 :
b11111111111111111111111111110100 v
b11111111111111111111111111110100 ""
b100000 #"
b11111101 9
b11111101 e
b11111101 !"
b110 8
b110 a
b110 f
b110111111010000000000000000 +
b110111111010000000000000000 -
b110111111010000000000000000 c
b110111111010000000000000000 t
#200
b1 ;
b1 R
b1 W
b1 Z
b1 ]
b1 _
b1 o
0A
1I
1M
b1 <
b1 l
b1 m
0@
1=
03
0*
#201
b10000 E
b10000 L
b10000 r
b11 N
b11 ^
b1 P
b1 Y
b1 O
b1 \
b10000 G
b10000 K
b10000 w
#202
b100 D
b100 U
b100 x
b100 Q
b100 V
#204
1*
#205
b10000 )
b10000 H
b10000 p
b10000 s
#206
b10100 F
b10100 J
b10100 q
b10100 u
#207
b101 6
b101 h
b101 {
b11 8
b11 a
b11 f
b11000001000000010000000101 +
b11000001000000010000000101 -
b11000001000000010000000101 c
b11000001000000010000000101 t
#208
b10100 E
b10100 L
b10100 r
b11111111 ;
b11111111 R
b11111111 W
b11111111 Z
b11111111 ]
b11111111 _
b11111111 o
0I
0M
b11111111 <
b11111111 l
b11111111 m
0=
13
10
0*
#209
b11111111 N
b11111111 ^
b11 P
b11 Y
b11111111 O
b11111111 \
b1000 G
b1000 K
b1000 w
#210
b10 D
b10 U
b10 x
b10 Q
b10 V
#212
1*
#213
b10 %
b10100 )
b10100 H
b10100 p
b10100 s
#214
b11000 E
b11000 L
b11000 r
b11000 F
b11000 J
b11000 q
b11000 u
#215
b100 :
b100 v
b100 ""
b100000 #"
b110 6
b110 h
b110 {
b1 9
b1 e
b1 !"
b111 8
b111 a
b111 f
b10 5
b10 S
b10 X
b10 [
b10 `
b10 |
b111000000010000010000000110 +
b111000000010000010000000110 -
b111000000010000010000000110 c
b111000000010000010000000110 t
#216
xI
xA
1@
00
b10 P
b10 Y
0*
#217
b1 D
b1 U
b1 x
b11100 G
b11100 K
b11100 w
b1 Q
b1 V
#220
1*
#221
b11000 )
b11000 H
b11000 p
b11000 s
#222
b11100 E
b11100 L
b11100 r
b11100 F
b11100 J
b11100 q
b11100 u
#223
b11111111111111111111111111110100 :
b11111111111111111111111111110100 v
b11111111111111111111111111110100 ""
b100000 #"
b11111101 9
b11111101 e
b11111101 !"
b110 8
b110 a
b110 f
b110111111010000000000000000 +
b110111111010000000000000000 -
b110111111010000000000000000 c
b110111111010000000000000000 t
#224
b1 ;
b1 R
b1 W
b1 Z
b1 ]
b1 _
b1 o
0A
1I
1M
b1 <
b1 l
b1 m
0@
1=
03
0*
#225
b10000 E
b10000 L
b10000 r
b11 N
b11 ^
b0 P
b0 Y
b1 O
b1 \
b10000 G
b10000 K
b10000 w
#226
b11 D
b11 U
b11 x
b11 Q
b11 V
#228
1*
#229
b10000 )
b10000 H
b10000 p
b10000 s
#230
b10100 F
b10100 J
b10100 q
b10100 u
#231
b101 6
b101 h
b101 {
b11 8
b11 a
b11 f
b11000001000000010000000101 +
b11000001000000010000000101 -
b11000001000000010000000101 c
b11000001000000010000000101 t
#232
b10100 E
b10100 L
b10100 r
b11111111 ;
b11111111 R
b11111111 W
b11111111 Z
b11111111 ]
b11111111 _
b11111111 o
0I
0M
b11111111 <
b11111111 l
b11111111 m
0=
13
10
0*
#233
b11111111 N
b11111111 ^
b10 P
b10 Y
b11111111 O
b11111111 \
b1000 G
b1000 K
b1000 w
#234
b1 D
b1 U
b1 x
b1 Q
b1 V
#236
1*
#237
b1 %
b10100 )
b10100 H
b10100 p
b10100 s
#238
b11000 E
b11000 L
b11000 r
b11000 F
b11000 J
b11000 q
b11000 u
#239
b100 :
b100 v
b100 ""
b100000 #"
b110 6
b110 h
b110 {
b1 9
b1 e
b1 !"
b111 8
b111 a
b111 f
b1 5
b1 S
b1 X
b1 [
b1 `
b1 |
b111000000010000010000000110 +
b111000000010000010000000110 -
b111000000010000010000000110 c
b111000000010000010000000110 t
#240
xI
xA
1@
00
b1 P
b1 Y
0*
#241
b11100 E
b11100 L
b11100 r
1I
1M
1B
b0 D
b0 U
b0 x
1/
b11100 G
b11100 K
b11100 w
b0 Q
b0 V
#244
1*
#245
b11100 )
b11100 H
b11100 p
b11100 s
#246
b100000 F
b100000 J
b100000 q
b100000 u
#247
b1 1
b1 g
b1 y
b111 6
b111 h
b111 {
b111 >
b111 d
b111 n
b10 8
b10 a
b10 f
b10000000010000010000000111 +
b10000000010000010000000111 -
b10000000010000010000000111 c
b10000000010000010000000111 t
#248
b100000 E
b100000 L
b100000 r
0I
0M
b1 ;
b1 R
b1 W
b1 Z
b1 ]
b1 _
b1 o
0B
0A
b1 <
b1 l
b1 m
0@
03
10
0*
#249
b1001 ;
b1001 R
b1001 W
b1001 Z
b1001 ]
b1001 _
b1001 o
b1001 <
b1001 l
b1001 m
b11110111 &"
b1 N
b1 ^
b1 O
b1 \
b1001 4
b1001 k
b1001 }
b1001 $"
b100100 G
b100100 K
b100100 w
