CPU/Part 04/cpu_wavedata_Grp18CPU.vcd
$date
	Wed Feb  9 09:14:37 2022
$end
$version
	Icarus Verilog
$end
$timescale
	1s
$end
$scope module cpu_tb $end
$scope module mycpu $end
$scope module registerInstance $end
$var reg 8 ! \register[0] [7:0] $end
$upscope $end
$upscope $end
$upscope $end
$scope module cpu_tb $end
$scope module mycpu $end
$scope module registerInstance $end
$var reg 8 " \register[1] [7:0] $end
$upscope $end
$upscope $end
$upscope $end
$scope module cpu_tb $end
$scope module mycpu $end
$scope module registerInstance $end
$var reg 8 # \register[2] [7:0] $end
$upscope $end
$upscope $end
$upscope $end
$scope module cpu_tb $end
$scope module mycpu $end
$scope module registerInstance $end
$var reg 8 $ \register[3] [7:0] $end
$upscope $end
$upscope $end
$upscope $end
$scope module cpu_tb $end
$scope module mycpu $end
$scope module registerInstance $end
$var reg 8 % \register[4] [7:0] $end
$upscope $end
$upscope $end
$upscope $end
$scope module cpu_tb $end
$scope module mycpu $end
$scope module registerInstance $end
$var reg 8 & \register[5] [7:0] $end
$upscope $end
$upscope $end
$upscope $end
$scope module cpu_tb $end
$scope module mycpu $end
$scope module registerInstance $end
$var reg 8 ' \register[6] [7:0] $end
$upscope $end
$upscope $end
$upscope $end
$scope module cpu_tb $end
$scope module mycpu $end
$scope module registerInstance $end
$var reg 8 ( \register[7] [7:0] $end
$upscope $end
$upscope $end
$upscope $end
$scope module cpu_tb $end
$var wire 32 ) PC [31:0] $end
$var reg 1 * CLK $end
$var reg 32 + INSTRUCTION [31:0] $end
$var reg 1 , RESET $end
$scope module mycpu $end
$var wire 1 * CLK $end
$var wire 32 - INSTRUCTION [31:0] $end
$var wire 1 , RESET $end
$var wire 1 . writeenable $end
$var wire 3 / writeReg_add [2:0] $end
$var wire 8 0 twoscomplement [7:0] $end
$var wire 1 1 sub_trigger $end
$var wire 8 2 regOut2 [7:0] $end
$var wire 8 3 regOut1 [7:0] $end
$var wire 3 4 readReg2_add [2:0] $end
$var wire 3 5 readReg1_add [2:0] $end
$var wire 8 6 opcode [7:0] $end
$var wire 8 7 offset7 [7:0] $end
$var wire 32 8 offset32 [31:0] $end
$var wire 8 9 mux2_Out [7:0] $end
$var wire 8 : mux1_Out [7:0] $end
$var wire 1 ; j $end
$var wire 8 < immediate [7:0] $end
$var wire 1 = imm_trigger $end
$var wire 1 > beqOK $end
$var wire 1 ? beqJOK $end
$var wire 1 @ beq $end
$var wire 3 A alu_op [2:0] $end
$var wire 8 B aluResult [7:0] $end
$var wire 32 C PCtobeExecuted [31:0] $end
$var wire 32 D PCNEXT [31:0] $end
$var wire 32 E PCJBeqNext [31:0] $end
$var wire 32 F PC [31:0] $end
$var wire 1 G BeqResult $end
$scope module ANDInstance $end
$var wire 1 @ BEQ $end
$var wire 1 G ALU_ZERO $end
$var reg 1 > BEQ_OK $end
$upscope $end
$scope module MUX32Instance $end
$var wire 32 H PC_NEXT [31:0] $end
$var wire 32 I PC_JBEQ_NEXT [31:0] $end
$var wire 1 ? BEQ_J_OK $end
$var reg 32 J PC_tobe_Executed [31:0] $end
$upscope $end
$scope module ORInstance $end
$var wire 1 > BEQ_OK $end
$var wire 1 ; J $end
$var reg 1 ? BEQ_J_OK $end
$upscope $end
$scope module aluInstance $end
$var wire 8 K orResult [7:0] $end
$var wire 8 L fwdResult [7:0] $end
$var wire 8 M andResult [7:0] $end
$var wire 8 N addResult [7:0] $end
$var wire 8 O DATA2 [7:0] $end
$var wire 8 P DATA1 [7:0] $end
$var wire 3 Q ALUOP [2:0] $end
$var reg 8 R ALURESULT [7:0] $end
$var reg 1 G BEQRESULT $end
$scope module add1 $end
$var wire 8 S RESULT [7:0] $end
$var wire 8 T DATA2 [7:0] $end
$var wire 8 U DATA1 [7:0] $end
$upscope $end
$scope module and1 $end
$var wire 8 V RESULT [7:0] $end
$var wire 8 W DATA2 [7:0] $end
$var wire 8 X DATA1 [7:0] $end
$upscope $end
$scope module fwd1 $end
$var wire 8 Y RESULT [7:0] $end
$var wire 8 Z DATA2 [7:0] $end
$upscope $end
$scope module or1 $end
$var wire 8 [ RESULT [7:0] $end
$var wire 8 \ DATA2 [7:0] $end
$var wire 8 ] DATA1 [7:0] $end
$upscope $end
$upscope $end
$scope module controlUnitInstance $end
$var wire 8 ^ OPCODE [7:0] $end
$var reg 3 _ ALU_OP [2:0] $end
$var reg 1 @ BEQ $end
$var reg 1 = IMM_TRIGGER $end
$var reg 1 ; J $end
$var reg 1 1 SUB_TRIGGER $end
$var reg 1 . WRITE_ENABLE $end
$upscope $end
$scope module decoderInstance $end
$var wire 32 ` INSTRUCTION [31:0] $end
$var reg 8 a IMMEDIATE [7:0] $end
$var reg 8 b OFFSET [7:0] $end
$var reg 8 c OPCODE [7:0] $end
$var reg 3 d RD [2:0] $end
$var reg 3 e RS [2:0] $end
$var reg 3 f RT [2:0] $end
$upscope $end
$scope module mux1 $end
$var wire 1 1 MUXSELECT $end
$var wire 8 g REG2 [7:0] $end
$var wire 8 h REG1 [7:0] $end
$var reg 8 i MUXOUT [7:0] $end
$upscope $end
$scope module mux2 $end
$var wire 1 = MUXSELECT $end
$var wire 8 j REG1 [7:0] $end
$var wire 8 k REG2 [7:0] $end
$var reg 8 l MUXOUT [7:0] $end
$upscope $end
$scope module pcAdderInstance $end
$var wire 32 m PC [31:0] $end
$var reg 32 n PC_NEXT [31:0] $end
$upscope $end
$scope module pcInstance $end
$var wire 1 * CLK $end
$var wire 32 o PC_tobe_Executed [31:0] $end
$var wire 1 , RESET $end
$var reg 32 p PC [31:0] $end
$upscope $end
$scope module pcJBeqAdder $end
$var wire 32 q INSTRUCTION [31:0] $end
$var wire 32 r PC_NEXT [31:0] $end
$var wire 32 s OFFSET_32 [31:0] $end
$var reg 32 t PC_JBEQ_NEXT [31:0] $end
$upscope $end
$scope module registerInstance $end
$var wire 1 * CLK $end
$var wire 8 u IN [7:0] $end
$var wire 3 v INADDRESS [2:0] $end
$var wire 3 w OUT1ADDRESS [2:0] $end
$var wire 3 x OUT2ADDRESS [2:0] $end
$var wire 8 y REGOUT1 [7:0] $end
$var wire 8 z REGOUT2 [7:0] $end
$var wire 1 , RESET $end
$var wire 1 . WRITE $end
$var integer 32 { index [31:0] $end
$upscope $end
$scope module shiftExtensionInstance $end
$var wire 8 | CURRENT_OFFSET [7:0] $end
$var reg 32 } UPDATED_OFFSET [31:0] $end
$var integer 32 ~ counter [31:0] $end
$upscope $end
$scope module twoscomplementInstance $end
$var wire 8 !" VALUE [7:0] $end
$var reg 8 "" TWOS_COMPLEMENT [7:0] $end
$var reg 8 #" Temp [7:0] $end
$upscope $end
$upscope $end
$upscope $end
$enddefinitions $end
#0
$dumpvars
bx #"
bx ""
bx !"
bx ~
bx }
bx |
b1000 {
bx z
bx y
bx x
bx w
bx v
bx u
bx t
bx s
bx r
bx q
bx p
bx o
bx n
bx m
bx l
bx k
bx j
bx i
bx h
bx g
bx f
bx e
bx d
bx c
bx b
bx a
bx `
bx _
bx ^
bx ]
bx \
bx [
bx Z
bx Y
bx X
bx W
bx V
bx U
bx T
bx S
bx R
bx Q
bx P
bx O
bx N
bx M
bx L
bx K
bx J
bx I
bx H
xG
bx F
bx E
bx D
bx C
bx B
bx A
x@
x?
x>
x=
bx <
x;
bx :
bx 9
bx 8
bx 7
bx 6
bx 5
bx 4
bx 3
bx 2
x1
bx 0
bx /
x.
bx -
1,
bx +
0*
bx )
bx (
bx '
bx &
bx %
bx $
bx #
bx "
bx !
$end
#4
1*
#5
b0 (
b0 '
b0 &
b0 %
b0 $
b0 #
b0 "
b0 !
b1000 {
b0 )
b0 F
b0 m
b0 p
#6
b100 C
b100 J
b100 o
b100 D
b100 H
b100 n
b100 r
#7
b100 /
b100 d
b100 v
b0 5
b0 f
b0 w
b10 4
b10 e
b10 x
b1010 <
b1010 a
b1010 k
b0 6
b0 ^
b0 c
b1000000000000001010 +
b1000000000000001010 -
b1000000000000001010 `
b1000000000000001010 q
#8
0?
0>
b1010 9
b1010 O
b1010 T
b1010 W
b1010 Z
b1010 \
b1010 l
0@
0;
01
1.
1=
b0 A
b0 Q
b0 _
0*
#9
b1010 B
b1010 R
b1010 u
b0 :
b0 i
b0 j
b0 #"
bx1x1x K
bx1x1x [
b0x0x0 M
b0x0x0 V
b1010 L
b1010 Y
b0 3
b0 P
b0 U
b0 X
b0 ]
b0 y
b0 2
b0 h
b0 z
b0 !"
#10
b1010 K
b1010 [
b0 M
b0 V
b0 0
b0 g
b0 ""
0,
#11
0G
b1010 N
b1010 S
#12
1*
#13
b1010 %
b100 )
b100 F
b100 m
b100 p
#14
b1000 C
b1000 J
b1000 o
b1000 D
b1000 H
b1000 n
b1000 r
#15
b1 9
b1 O
b1 T
b1 W
b1 Z
b1 \
b1 l
b101 /
b101 d
b101 v
b1 4
b1 e
b1 x
b1 <
b1 a
b1 k
b1010000000000000001 +
b1010000000000000001 -
b1010000000000000001 `
b1010000000000000001 q
#16
b1 B
b1 R
b1 u
b1 K
b1 [
b1 L
b1 Y
0*
#17
b1 N
b1 S
#20
1*
#21
b1 &
b1000 )
b1000 F
b1000 m
b1000 p
#22
b1100 C
b1100 J
b1100 o
b1100 D
b1100 H
b1100 n
b1100 r
#23
b110 /
b110 d
b110 v
b1100000000000000001 +
b1100000000000000001 -
b1100000000000000001 `
b1100000000000000001 q
#24
0*
#28
1*
#29
b1 '
b1100 )
b1100 F
b1100 m
b1100 p
#30
b10000 C
b10000 J
b10000 o
b10000 D
b10000 H
b10000 n
b10000 r
#31
b1001 9
b1001 O
b1001 T
b1001 W
b1001 Z
b1001 \
b1001 l
b111 /
b111 d
b111 v
b1001 <
b1001 a
b1001 k
b1110000000000001001 +
b1110000000000001001 -
b1110000000000001001 `
b1110000000000001001 q
#32
b1001 B
b1001 R
b1001 u
b1001 K
b1001 [
b1001 L
b1001 Y
0*
#33
b1001 N
b1001 S
#36
1*
#37
b1001 (
b10000 )
b10000 F
b10000 m
b10000 p
#38
b10100 C
b10100 J
b10100 o
b10100 D
b10100 H
b10100 n
b10100 r
#39
b101 9
b101 O
b101 T
b101 W
b101 Z
b101 \
b101 l
b100 /
b100 d
b100 v
b100 5
b100 f
b100 w
b101 4
b101 e
b101 x
b101 <
b101 a
b101 k
b11 6
b11 ^
b11 c
b11000001000000010000000101 +
b11000001000000010000000101 -
b11000001000000010000000101 `
b11000001000000010000000101 q
#40
b0 9
b0 O
b0 T
b0 W
b0 Z
b0 \
b0 l
b101 K
b101 [
b101 L
b101 Y
11
0=
b1 A
b1 Q
b1 _
0*
#41
b11111111 #"
b0 K
b0 [
b0 L
b0 Y
b1010 3
b1010 P
b1010 U
b1010 X
b1010 ]
b1010 y
b1 2
b1 h
b1 z
b1 !"
#42
b11111111 9
b11111111 O
b11111111 T
b11111111 W
b11111111 Z
b11111111 \
b11111111 l
b11111111 :
b11111111 i
b11111111 j
b1010 K
b1010 [
b11111111 0
b11111111 g
b11111111 ""
#43
b11111111 K
b11111111 [
b1010 M
b1010 V
b11111111 L
b11111111 Y
#44
1*
#45
b1001 %
b10100 )
b10100 F
b10100 m
b10100 p
#46
b11000 C
b11000 J
b11000 o
b11000 D
b11000 H
b11000 n
b11000 r
#47
b100 8
b100 s
b100 }
b100000 ~
b110 4
b110 e
b110 x
b1 7
b1 b
b1 |
b111 6
b111 ^
b111 c
b1001 3
b1001 P
b1001 U
b1001 X
b1001 ]
b1001 y
b111000000010000010000000110 +
b111000000010000010000000110 -
b111000000010000010000000110 `
b111000000010000010000000110 q
#48
1@
0.
b1001 M
b1001 V
0*
#49
b1000 B
b1000 R
b1000 u
b11100 E
b11100 I
b11100 t
b1000 N
b1000 S
#52
1*
#53
b11000 )
b11000 F
b11000 m
b11000 p
#54
b11100 C
b11100 J
b11100 o
b11100 D
b11100 H
b11100 n
b11100 r
#55
b11111111111111111111111111110100 8
b11111111111111111111111111110100 s
b11111111111111111111111111110100 }
b100000 ~
b11111101 7
b11111101 b
b11111101 |
b110 6
b110 ^
b110 c
b110111111010000000000000000 +
b110111111010000000000000000 -
b110111111010000000000000000 `
b110111111010000000000000000 q
#56
b1 9
b1 O
b1 T
b1 W
b1 Z
b1 \
b1 l
1?
b1 :
b1 i
b1 j
0@
1;
01
0*
#57
b10000 C
b10000 J
b10000 o
b1001 K
b1001 [
b1 M
b1 V
b1 L
b1 Y
b10000 E
b10000 I
b10000 t
#58
b1010 B
b1010 R
b1010 u
b1010 N
b1010 S
#60
1*
#61
b10000 )
b10000 F
b10000 m
b10000 p
#62
b10100 D
b10100 H
b10100 n
b10100 r
#63
b101 4
b101 e
b101 x
b11 6
b11 ^
b11 c
b11000001000000010000000101 +
b11000001000000010000000101 -
b11000001000000010000000101 `
b11000001000000010000000101 q
#64
b10100 C
b10100 J
b10100 o
b11111111 9
b11111111 O
b11111111 T
b11111111 W
b11111111 Z
b11111111 \
b11111111 l
0?
b11111111 :
b11111111 i
b11111111 j
0;
11
1.
0*
#65
b11111111 K
b11111111 [
b1001 M
b1001 V
b11111111 L
b11111111 Y
b1000 E
b1000 I
b1000 t
#66
b1000 B
b1000 R
b1000 u
b1000 N
b1000 S
#68
1*
#69
b1000 %
b10100 )
b10100 F
b10100 m
b10100 p
#70
b11000 C
b11000 J
b11000 o
b11000 D
b11000 H
b11000 n
b11000 r
#71
b100 8
b100 s
b100 }
b100000 ~
b110 4
b110 e
b110 x
b1 7
b1 b
b1 |
b111 6
b111 ^
b111 c
b1000 3
b1000 P
b1000 U
b1000 X
b1000 ]
b1000 y
b111000000010000010000000110 +
b111000000010000010000000110 -
b111000000010000010000000110 `
b111000000010000010000000110 q
#72
1@
0.
b1000 M
b1000 V
0*
#73
b111 B
b111 R
b111 u
b11100 E
b11100 I
b11100 t
b111 N
b111 S
#76
1*
#77
b11000 )
b11000 F
b11000 m
b11000 p
#78
b11100 C
b11100 J
b11100 o
b11100 D
b11100 H
b11100 n
b11100 r
#79
b11111111111111111111111111110100 8
b11111111111111111111111111110100 s
b11111111111111111111111111110100 }
b100000 ~
b11111101 7
b11111101 b
b11111101 |
b110 6
b110 ^
b110 c
b110111111010000000000000000 +
b110111111010000000000000000 -
b110111111010000000000000000 `
b110111111010000000000000000 q
#80
b1 9
b1 O
b1 T
b1 W
b1 Z
b1 \
b1 l
1?
b1 :
b1 i
b1 j
0@
1;
01
0*
#81
b10000 C
b10000 J
b10000 o
b1001 K
b1001 [
b0 M
b0 V
b1 L
b1 Y
b10000 E
b10000 I
b10000 t
#82
b1001 B
b1001 R
b1001 u
b1001 N
b1001 S
#84
1*
#85
b10000 )
b10000 F
b10000 m
b10000 p
#86
b10100 D
b10100 H
b10100 n
b10100 r
#87
b101 4
b101 e
b101 x
b11 6
b11 ^
b11 c
b11000001000000010000000101 +
b11000001000000010000000101 -
b11000001000000010000000101 `
b11000001000000010000000101 q
#88
b10100 C
b10100 J
b10100 o
b11111111 9
b11111111 O
b11111111 T
b11111111 W
b11111111 Z
b11111111 \
b11111111 l
0?
b11111111 :
b11111111 i
b11111111 j
0;
11
1.
0*
#89
b11111111 K
b11111111 [
b1000 M
b1000 V
b11111111 L
b11111111 Y
b1000 E
b1000 I
b1000 t
#90
b111 B
b111 R
b111 u
b111 N
b111 S
#92
1*
#93
b111 %
b10100 )
b10100 F
b10100 m
b10100 p
#94
b11000 C
b11000 J
b11000 o
b11000 D
b11000 H
b11000 n
b11000 r
#95
b100 8
b100 s
b100 }
b100000 ~
b110 4
b110 e
b110 x
b1 7
b1 b
b1 |
b111 6
b111 ^
b111 c
b111 3
b111 P
b111 U
b111 X
b111 ]
b111 y
b111000000010000010000000110 +
b111000000010000010000000110 -
b111000000010000010000000110 `
b111000000010000010000000110 q
#96
1@
0.
b111 M
b111 V
0*
#97
b110 B
b110 R
b110 u
b11100 E
b11100 I
b11100 t
b110 N
b110 S
#100
1*
#101
b11000 )
b11000 F
b11000 m
b11000 p
#102
b11100 C
b11100 J
b11100 o
b11100 D
b11100 H
b11100 n
b11100 r
#103
b11111111111111111111111111110100 8
b11111111111111111111111111110100 s
b11111111111111111111111111110100 }
b100000 ~
b11111101 7
b11111101 b
b11111101 |
b110 6
b110 ^
b110 c
b110111111010000000000000000 +
b110111111010000000000000000 -
b110111111010000000000000000 `
b110111111010000000000000000 q
#104
b1 9
b1 O
b1 T
b1 W
b1 Z
b1 \
b1 l
1?
b1 :
b1 i
b1 j
0@
1;
01
0*
#105
b10000 C
b10000 J
b10000 o
b111 K
b111 [
b1 M
b1 V
b1 L
b1 Y
b10000 E
b10000 I
b10000 t
#106
b1000 B
b1000 R
b1000 u
b1000 N
b1000 S
#108
1*
#109
b10000 )
b10000 F
b10000 m
b10000 p
#110
b10100 D
b10100 H
b10100 n
b10100 r
#111
b101 4
b101 e
b101 x
b11 6
b11 ^
b11 c
b11000001000000010000000101 +
b11000001000000010000000101 -
b11000001000000010000000101 `
b11000001000000010000000101 q
#112
b10100 C
b10100 J
b10100 o
b11111111 9
b11111111 O
b11111111 T
b11111111 W
b11111111 Z
b11111111 \
b11111111 l
0?
b11111111 :
b11111111 i
b11111111 j
0;
11
1.
0*
#113
b11111111 K
b11111111 [
b111 M
b111 V
b11111111 L
b11111111 Y
b1000 E
b1000 I
b1000 t
#114
b110 B
b110 R
b110 u
b110 N
b110 S
#116
1*
#117
b110 %
b10100 )
b10100 F
b10100 m
b10100 p
#118
b11000 C
b11000 J
b11000 o
b11000 D
b11000 H
b11000 n
b11000 r
#119
b100 8
b100 s
b100 }
b100000 ~
b110 4
b110 e
b110 x
b1 7
b1 b
b1 |
b111 6
b111 ^
b111 c
b110 3
b110 P
b110 U
b110 X
b110 ]
b110 y
b111000000010000010000000110 +
b111000000010000010000000110 -
b111000000010000010000000110 `
b111000000010000010000000110 q
#120
1@
0.
b110 M
b110 V
0*
#121
b101 B
b101 R
b101 u
b11100 E
b11100 I
b11100 t
b101 N
b101 S
#124
1*
#125
b11000 )
b11000 F
b11000 m
b11000 p
#126
b11100 C
b11100 J
b11100 o
b11100 D
b11100 H
b11100 n
b11100 r
#127
b11111111111111111111111111110100 8
b11111111111111111111111111110100 s
b11111111111111111111111111110100 }
b100000 ~
b11111101 7
b11111101 b
b11111101 |
b110 6
b110 ^
b110 c
b110111111010000000000000000 +
b110111111010000000000000000 -
b110111111010000000000000000 `
b110111111010000000000000000 q
#128
b1 9
b1 O
b1 T
b1 W
b1 Z
b1 \
b1 l
1?
b1 :
b1 i
b1 j
0@
1;
01
0*
#129
b10000 C
b10000 J
b10000 o
b111 K
b111 [
b0 M
b0 V
b1 L
b1 Y
b10000 E
b10000 I
b10000 t
#130
b111 B
b111 R
b111 u
b111 N
b111 S
#132
1*
#133
b10000 )
b10000 F
b10000 m
b10000 p
#134
b10100 D
b10100 H
b10100 n
b10100 r
#135
b101 4
b101 e
b101 x
b11 6
b11 ^
b11 c
b11000001000000010000000101 +
b11000001000000010000000101 -
b11000001000000010000000101 `
b11000001000000010000000101 q
#136
b10100 C
b10100 J
b10100 o
b11111111 9
b11111111 O
b11111111 T
b11111111 W
b11111111 Z
b11111111 \
b11111111 l
0?
b11111111 :
b11111111 i
b11111111 j
0;
11
1.
0*
#137
b11111111 K
b11111111 [
b110 M
b110 V
b11111111 L
b11111111 Y
b1000 E
b1000 I
b1000 t
#138
b101 B
b101 R
b101 u
b101 N
b101 S
#140
1*
#141
b101 %
b10100 )
b10100 F
b10100 m
b10100 p
#142
b11000 C
b11000 J
b11000 o
b11000 D
b11000 H
b11000 n
b11000 r
#143
b100 8
b100 s
b100 }
b100000 ~
b110 4
b110 e
b110 x
b1 7
b1 b
b1 |
b111 6
b111 ^
b111 c
b101 3
b101 P
b101 U
b101 X
b101 ]
b101 y
b111000000010000010000000110 +
b111000000010000010000000110 -
b111000000010000010000000110 `
b111000000010000010000000110 q
#144
1@
0.
b101 M
b101 V
0*
#145
b100 B
b100 R
b100 u
b11100 E
b11100 I
b11100 t
b100 N
b100 S
#148
1*
#149
b11000 )
b11000 F
b11000 m
b11000 p
#150
b11100 C
b11100 J
b11100 o
b11100 D
b11100 H
b11100 n
b11100 r
#151
b11111111111111111111111111110100 8
b11111111111111111111111111110100 s
b11111111111111111111111111110100 }
b100000 ~
b11111101 7
b11111101 b
b11111101 |
b110 6
b110 ^
b110 c
b110111111010000000000000000 +
b110111111010000000000000000 -
b110111111010000000000000000 `
b110111111010000000000000000 q
#152
b1 9
b1 O
b1 T
b1 W
b1 Z
b1 \
b1 l
1?
b1 :
b1 i
b1 j
0@
1;
01
0*
#153
b10000 C
b10000 J
b10000 o
b101 K
b101 [
b1 M
b1 V
b1 L
b1 Y
b10000 E
b10000 I
b10000 t
#154
b110 B
b110 R
b110 u
b110 N
b110 S
#156
1*
#157
b10000 )
b10000 F
b10000 m
b10000 p
#158
b10100 D
b10100 H
b10100 n
b10100 r
#159
b101 4
b101 e
b101 x
b11 6
b11 ^
b11 c
b11000001000000010000000101 +
b11000001000000010000000101 -
b11000001000000010000000101 `
b11000001000000010000000101 q
#160
b10100 C
b10100 J
b10100 o
b11111111 9
b11111111 O
b11111111 T
b11111111 W
b11111111 Z
b11111111 \
b11111111 l
0?
b11111111 :
b11111111 i
b11111111 j
0;
11
1.
0*
#161
b11111111 K
b11111111 [
b101 M
b101 V
b11111111 L
b11111111 Y
b1000 E
b1000 I
b1000 t
#162
b100 B
b100 R
b100 u
b100 N
b100 S
#164
1*
#165
b100 %
b10100 )
b10100 F
b10100 m
b10100 p
#166
b11000 C
b11000 J
b11000 o
b11000 D
b11000 H
b11000 n
b11000 r
#167
b100 8
b100 s
b100 }
b100000 ~
b110 4
b110 e
b110 x
b1 7
b1 b
b1 |
b111 6
b111 ^
b111 c
b100 3
b100 P
b100 U
b100 X
b100 ]
b100 y
b111000000010000010000000110 +
b111000000010000010000000110 -
b111000000010000010000000110 `
b111000000010000010000000110 q
#168
1@
0.
b100 M
b100 V
0*
#169
b11 B
b11 R
b11 u
b11100 E
b11100 I
b11100 t
b11 N
b11 S
#172
1*
#173
b11000 )
b11000 F
b11000 m
b11000 p
#174
b11100 C
b11100 J
b11100 o
b11100 D
b11100 H
b11100 n
b11100 r
#175
b11111111111111111111111111110100 8
b11111111111111111111111111110100 s
b11111111111111111111111111110100 }
b100000 ~
b11111101 7
b11111101 b
b11111101 |
b110 6
b110 ^
b110 c
b110111111010000000000000000 +
b110111111010000000000000000 -
b110111111010000000000000000 `
b110111111010000000000000000 q
#176
b1 9
b1 O
b1 T
b1 W
b1 Z
b1 \
b1 l
1?
b1 :
b1 i
b1 j
0@
1;
01
0*
#177
b10000 C
b10000 J
b10000 o
b101 K
b101 [
b0 M
b0 V
b1 L
b1 Y
b10000 E
b10000 I
b10000 t
#178
b101 B
b101 R
b101 u
b101 N
b101 S
#180
1*
#181
b10000 )
b10000 F
b10000 m
b10000 p
#182
b10100 D
b10100 H
b10100 n
b10100 r
#183
b101 4
b101 e
b101 x
b11 6
b11 ^
b11 c
b11000001000000010000000101 +
b11000001000000010000000101 -
b11000001000000010000000101 `
b11000001000000010000000101 q
#184
b10100 C
b10100 J
b10100 o
b11111111 9
b11111111 O
b11111111 T
b11111111 W
b11111111 Z
b11111111 \
b11111111 l
0?
b11111111 :
b11111111 i
b11111111 j
0;
11
1.
0*
#185
b11111111 K
b11111111 [
b100 M
b100 V
b11111111 L
b11111111 Y
b1000 E
b1000 I
b1000 t
#186
b11 B
b11 R
b11 u
b11 N
b11 S
#188
1*
#189
b11 %
b10100 )
b10100 F
b10100 m
b10100 p
#190
b11000 C
b11000 J
b11000 o
b11000 D
b11000 H
b11000 n
b11000 r
#191
b100 8
b100 s
b100 }
b100000 ~
b110 4
b110 e
b110 x
b1 7
b1 b
b1 |
b111 6
b111 ^
b111 c
b11 3
b11 P
b11 U
b11 X
b11 ]
b11 y
b111000000010000010000000110 +
b111000000010000010000000110 -
b111000000010000010000000110 `
b111000000010000010000000110 q
#192
1@
0.
b11 M
b11 V
0*
#193
b10 B
b10 R
b10 u
b11100 E
b11100 I
b11100 t
b10 N
b10 S
#196
1*
#197
b11000 )
b11000 F
b11000 m
b11000 p
#198
b11100 C
b11100 J
b11100 o
b11100 D
b11100 H
b11100 n
b11100 r
#199
b11111111111111111111111111110100 8
b11111111111111111111111111110100 s
b11111111111111111111111111110100 }
b100000 ~
b11111101 7
b11111101 b
b11111101 |
b110 6
b110 ^
b110 c
b110111111010000000000000000 +
b110111111010000000000000000 -
b110111111010000000000000000 `
b110111111010000000000000000 q
#200
b1 9
b1 O
b1 T
b1 W
b1 Z
b1 \
b1 l
1?
b1 :
b1 i
b1 j
0@
1;
01
0*
#201
b10000 C
b10000 J
b10000 o
b11 K
b11 [
b1 M
b1 V
b1 L
b1 Y
b10000 E
b10000 I
b10000 t
#202
b100 B
b100 R
b100 u
b100 N
b100 S
#204
1*
#205
b10000 )
b10000 F
b10000 m
b10000 p
#206
b10100 D
b10100 H
b10100 n
b10100 r
#207
b101 4
b101 e
b101 x
b11 6
b11 ^
b11 c
b11000001000000010000000101 +
b11000001000000010000000101 -
b11000001000000010000000101 `
b11000001000000010000000101 q
#208
b10100 C
b10100 J
b10100 o
b11111111 9
b11111111 O
b11111111 T
b11111111 W
b11111111 Z
b11111111 \
b11111111 l
0?
b11111111 :
b11111111 i
b11111111 j
0;
11
1.
0*
#209
b11111111 K
b11111111 [
b11 M
b11 V
b11111111 L
b11111111 Y
b1000 E
b1000 I
b1000 t
#210
b10 B
b10 R
b10 u
b10 N
b10 S
#212
1*
#213
b10 %
b10100 )
b10100 F
b10100 m
b10100 p
#214
b11000 C
b11000 J
b11000 o
b11000 D
b11000 H
b11000 n
b11000 r
#215
b100 8
b100 s
b100 }
b100000 ~
b110 4
b110 e
b110 x
b1 7
b1 b
b1 |
b111 6
b111 ^
b111 c
b10 3
b10 P
b10 U
b10 X
b10 ]
b10 y
b111000000010000010000000110 +
b111000000010000010000000110 -
b111000000010000010000000110 `
b111000000010000010000000110 q
#216
1@
0.
b10 M
b10 V
0*
#217
b1 B
b1 R
b1 u
b11100 E
b11100 I
b11100 t
b1 N
b1 S
#220
1*
#221
b11000 )
b11000 F
b11000 m
b11000 p
#222
b11100 C
b11100 J
b11100 o
b11100 D
b11100 H
b11100 n
b11100 r
#223
b11111111111111111111111111110100 8
b11111111111111111111111111110100 s
b11111111111111111111111111110100 }
b100000 ~
b11111101 7
b11111101 b
b11111101 |
b110 6
b110 ^
b110 c
b110111111010000000000000000 +
b110111111010000000000000000 -
b110111111010000000000000000 `
b110111111010000000000000000 q
#224
b1 9
b1 O
b1 T
b1 W
b1 Z
b1 \
b1 l
1?
b1 :
b1 i
b1 j
0@
1;
01
0*
#225
b10000 C
b10000 J
b10000 o
b11 K
b11 [
b0 M
b0 V
b1 L
b1 Y
b10000 E
b10000 I
b10000 t
#226
b11 B
b11 R
b11 u
b11 N
b11 S
#228
1*
#229
b10000 )
b10000 F
b10000 m
b10000 p
#230
b10100 D
b10100 H
b10100 n
b10100 r
#231
b101 4
b101 e
b101 x
b11 6
b11 ^
b11 c
b11000001000000010000000101 +
b11000001000000010000000101 -
b11000001000000010000000101 `
b11000001000000010000000101 q
#232
b10100 C
b10100 J
b10100 o
b11111111 9
b11111111 O
b11111111 T
b11111111 W
b11111111 Z
b11111111 \
b11111111 l
0?
b11111111 :
b11111111 i
b11111111 j
0;
11
1.
0*
#233
b11111111 K
b11111111 [
b10 M
b10 V
b11111111 L
b11111111 Y
b1000 E
b1000 I
b1000 t
#234
b1 B
b1 R
b1 u
b1 N
b1 S
#236
1*
#237
b1 %
b10100 )
b10100 F
b10100 m
b10100 p
#238
b11000 C
b11000 J
b11000 o
b11000 D
b11000 H
b11000 n
b11000 r
#239
b100 8
b100 s
b100 }
b100000 ~
b110 4
b110 e
b110 x
b1 7
b1 b
b1 |
b111 6
b111 ^
b111 c
b1 3
b1 P
b1 U
b1 X
b1 ]
b1 y
b111000000010000010000000110 +
b111000000010000010000000110 -
b111000000010000010000000110 `
b111000000010000010000000110 q
#240
1@
0.
b1 M
b1 V
0*
#241
b11100 C
b11100 J
b11100 o
1?
1>
b0 B
b0 R
b0 u
1G
b11100 E
b11100 I
b11100 t
b0 N
b0 S
#244
1*
#245
b11100 )
b11100 F
b11100 m
b11100 p
#246
b100000 D
b100000 H
b100000 n
b100000 r
#247
b1 /
b1 d
b1 v
b111 4
b111 e
b111 x
b111 <
b111 a
b111 k
b10 6
b10 ^
b10 c
b10000000010000010000000111 +
b10000000010000010000000111 -
b10000000010000010000000111 `
b10000000010000010000000111 q
#248
b100000 C
b100000 J
b100000 o
0?
b1 9
b1 O
b1 T
b1 W
b1 Z
b1 \
b1 l
0>
b1 :
b1 i
b1 j
0@
01
1.
0*
#249
b1001 9
b1001 O
b1001 T
b1001 W
b1001 Z
b1001 \
b1001 l
b1001 :
b1001 i
b1001 j
b11110111 #"
b1 K
b1 [
b1 L
b1 Y
b1001 2
b1001 h
b1001 z
b1001 !"
b100100 E
b100100 I
b100100 t
#250
b1001 K
b1001 [
b1001 L
b1001 Y
b11110111 0
b11110111 g
b11110111 ""
#251
b1010 B
b1010 R
b1010 u
0G
b1010 N
b1010 S
#252
1*
#253
b1010 "
b100000 )
b100000 F
b100000 m
b100000 p
#254
b100100 C
b100100 J
b100100 o
b100100 D
b100100 H
b100100 n
b100100 r
#255
bx /
bx d
bx v
bx 5
bx f
bx w
bx 4
bx e
bx x
bx <
bx a
bx k
bx 6
bx ^
bx c
bx +
bx -
bx `
bx q
#256
0*
#257
bx 9
bx O
bx T
bx W
bx Z
bx \
bx l
bx :
bx i
bx j
bx #"
bx 3
bx P
bx U
bx X
bx ]
bx y
bx 2
bx h
bx z
bx !"
b101000 E
b101000 I
b101000 t
